%YAML 1.1
%TAG !u! tag:unity3d.com,2011:
--- !u!114 &11400000
MonoBehaviour:
  m_ObjectHideFlags: 0
  m_CorrespondingSourceObject: {fileID: 0}
  m_PrefabInstance: {fileID: 0}
  m_PrefabAsset: {fileID: 0}
  m_GameObject: {fileID: 0}
  m_Enabled: 1
  m_EditorHideFlags: 0
  m_Script: {fileID: 11500000, guid: bbb281ee3bf0b054c82ac2347e9e782c, type: 3}
  m_Name: Default Local Group
  m_EditorClassIdentifier: 
  m_GroupName: Default Local Group
  m_Data:
    m_SerializedData: []
  m_GUID: 7abbf222784acbc4b91510c9fa8e446e
  m_SerializeEntries: []
  m_ReadOnly: 0
  m_Settings: {fileID: 11400000, guid: 8076d05c4a10aa94d8c3bfd68ccd4930, type: 2}
  m_SchemaSet:
    m_Schemas:
    - {fileID: 11400000, guid: 169dbb63736313446acee8e862da15bb, type: 2}
    - {fileID: 11400000, guid: b58de443928fc3a428922235e3cf8ebf, type: 2}
