%YAML 1.1
%TAG !u! tag:unity3d.com,2011:
--- !u!114 &11400000
MonoBehaviour:
  m_ObjectHideFlags: 0
  m_CorrespondingSourceObject: {fileID: 0}
  m_PrefabInstance: {fileID: 0}
  m_PrefabAsset: {fileID: 0}
  m_GameObject: {fileID: 0}
  m_Enabled: 1
  m_EditorHideFlags: 0
  m_Script: {fileID: 11500000, guid: bbb281ee3bf0b054c82ac2347e9e782c, type: 3}
  m_Name: Localization-String-Tables-Japanese (ja)
  m_EditorClassIdentifier: 
  m_GroupName: Localization-String-Tables-Japanese (ja)
  m_Data:
    m_SerializedData: []
  m_GUID: 01fe7f95ade241043a30840466f428f1
  m_SerializeEntries: []
  m_ReadOnly: 1
  m_Settings: {fileID: 11400000, guid: 8076d05c4a10aa94d8c3bfd68ccd4930, type: 2}
  m_SchemaSet:
    m_Schemas:
    - {fileID: 11400000, guid: 3d6c8c97ba8c7514d8f37ea26e64efee, type: 2}
    - {fileID: 11400000, guid: 0b21c8f7e876ed64e9067e88e9a1875b, type: 2}
