%YAML 1.1
%TAG !u! tag:unity3d.com,2011:
--- !u!114 &11400000
MonoBehaviour:
  m_ObjectHideFlags: 0
  m_CorrespondingSourceObject: {fileID: 0}
  m_PrefabInstance: {fileID: 0}
  m_PrefabAsset: {fileID: 0}
  m_GameObject: {fileID: 0}
  m_Enabled: 1
  m_EditorHideFlags: 0
  m_Script: {fileID: 11500000, guid: bbb281ee3bf0b054c82ac2347e9e782c, type: 3}
  m_Name: Localization-String-Tables-English (en)
  m_EditorClassIdentifier: 
  m_GroupName: Localization-String-Tables-English (en)
  m_Data:
    m_SerializedData: []
  m_GUID: 47c3c8cad6007f641ae0c6b7c67b595d
  m_SerializeEntries:
  - m_GUID: dc232adb119f26e4db3b1d3ccb8185a0
    m_Address: Prueba_en
    m_ReadOnly: 1
    m_SerializedLabels:
    - Locale-en
    - Preload
  m_ReadOnly: 1
  m_Settings: {fileID: 11400000, guid: 8076d05c4a10aa94d8c3bfd68ccd4930, type: 2}
  m_SchemaSet:
    m_Schemas:
    - {fileID: 11400000, guid: e2199c82063bd114fb536a8834b1d409, type: 2}
    - {fileID: 11400000, guid: 4b7473329372ea941b50033bca25fdf6, type: 2}
